eBird daily life list — eb_daylist • auklet
…
    Methods (by class)

eb_daylist: Summarize daily life lists into counts of species seen
on each day.

eb_daylist: Visualize your day life lists

    Examples

day_list <- system.file("extdata/MyEBirdData.csv", package = "auklet") %>%
  eb_sightings() %>%
  eb_daylist()
summary(day_list)
#> # A tibble: 173 x 3
#>    month   day     n
#>    <dbl> <int> <int>
#>  1     1     1    23
#>  2     1     2    33
#>  3     1     3     6
#>  4     1     4    12
#>  5     1     6    30
#>  6     1     7     1
#>  7     1     9    14
#>  8     1    11    30
#>  9     1    12    48
#> 10     1    13    41
#> # ... with 163 more rows
…
